<?xml version="1.0" encoding="UTF-8" standalone="no"?>
<!DOCTYPE svg PUBLIC "-//W3C//DTD SVG 1.1//EN"
 "http://www.w3.org/Graphics/SVG/1.1/DTD/svg11.dtd">
<!-- Generated by graphviz version 2.40.1 (20161225.0304)
 -->
<!-- Title: G Pages: 1 -->
<svg width="1817pt" height="807pt"
 viewBox="0.00 0.00 1816.50 806.80" xmlns="http://www.w3.org/2000/svg" xmlns:xlink="http://www.w3.org/1999/xlink">
<g id="graph0" class="graph" transform="scale(1 1) rotate(0) translate(4 802.8)">
<title>G</title>
<polygon fill="#ffffff" stroke="transparent" points="-4,4 -4,-802.8 1812.5,-802.8 1812.5,4 -4,4"/>
<!-- n1 -->
<g id="node1" class="node">
<title>n1</title>
<g id="a_node1"><a xlink:href="http://kauriid.nzattestations/ipns/QmeXXXattestation02XXX...typ" xlink:title="kauriid:attestations/ipns/QmeXXXattestation02XXX...typ">
<ellipse fill="#fffc87" stroke="#808080" cx="839.5" cy="-259.6" rx="215.5619" ry="18"/>
<text text-anchor="middle" x="839.5" y="-255.9" font-family="Times,serif" font-size="14.00" fill="#000000">kauriid:attestations/ipns/QmeXXXattestation02XXX...typ</text>
</a>
</g>
</g>
<!-- b4 -->
<g id="node17" class="node">
<title>b4</title>
<ellipse fill="#c0c0c0" stroke="#c0c0c0" cx="1164.5" cy="-342.6" rx="1.8" ry="1.8"/>
</g>
<!-- n1&#45;&gt;b4 -->
<g id="edge13" class="edge">
<title>n1&#45;&gt;b4</title>
<path fill="none" stroke="#006400" d="M936.8583,-275.7444C1022.3047,-290.5646 1135.6873,-312.0657 1153.5,-324.6 1159.2506,-328.6466 1162.5628,-336.7483 1163.8595,-340.5462"/>
<text text-anchor="middle" x="1123.5" y="-298.6" font-family="Times,serif" font-size="10.00" fill="#006400">wasGeneratedBy</text>
</g>
<!-- b5 -->
<g id="node20" class="node">
<title>b5</title>
<ellipse fill="#c0c0c0" stroke="#c0c0c0" cx="736.5" cy="-380.4" rx="1.8" ry="1.8"/>
</g>
<!-- n1&#45;&gt;b5 -->
<g id="edge17" class="edge">
<title>n1&#45;&gt;b5</title>
<path fill="none" stroke="#000000" d="M808.8954,-277.594C801.3924,-282.8314 793.7345,-288.9526 787.5,-295.6 760.7045,-324.1702 741.1846,-369.1142 737.2352,-378.6039"/>
<text text-anchor="middle" x="822.5" y="-298.6" font-family="Times,serif" font-size="10.00" fill="#000000">wasDerivedFrom</text>
</g>
<!-- b6 -->
<g id="node22" class="node">
<title>b6</title>
<ellipse fill="#c0c0c0" stroke="#c0c0c0" cx="907.5" cy="-380.4" rx="1.8" ry="1.8"/>
</g>
<!-- n1&#45;&gt;b6 -->
<g id="edge20" class="edge">
<title>n1&#45;&gt;b6</title>
<path fill="none" stroke="#000000" d="M849.6803,-277.685C866.8716,-308.2248 900.3904,-367.7699 906.524,-378.6662"/>
<text text-anchor="middle" x="900.5" y="-298.6" font-family="Times,serif" font-size="10.00" fill="#000000">wasDerivedFrom</text>
</g>
<!-- n2 -->
<g id="node2" class="node">
<title>n2</title>
<g id="a_node2"><a xlink:href="http://kauriid.nzidentityAttestation/QmeXXXattestation02XXX...typ" xlink:title="kauriid:identityAttestation/QmeXXXattestation02XXX...typ">
<polygon fill="#9fb1fc" stroke="#0000ff" points="1314.5,-436.2 968.5,-436.2 968.5,-400.2 1314.5,-400.2 1314.5,-436.2"/>
<text text-anchor="middle" x="1141.5" y="-414.5" font-family="Times,serif" font-size="14.00" fill="#000000">kauriid:identityAttestation/QmeXXXattestation02XXX...typ</text>
</a>
</g>
</g>
<!-- n3 -->
<g id="node4" class="node">
<title>n3</title>
<g id="a_node4"><a xlink:href="http://kauriid.nzevidenceVerification/QmeXXXattestation02XXX...typ" xlink:title="kauriid:evidenceVerification/QmeXXXattestation02XXX...typ">
<polygon fill="#9fb1fc" stroke="#0000ff" points="1780,-519.2 1421,-519.2 1421,-483.2 1780,-483.2 1780,-519.2"/>
<text text-anchor="middle" x="1600.5" y="-497.5" font-family="Times,serif" font-size="14.00" fill="#000000">kauriid:evidenceVerification/QmeXXXattestation02XXX...typ</text>
</a>
</g>
</g>
<!-- n2&#45;&gt;n3 -->
<g id="edge5" class="edge">
<title>n2&#45;&gt;n3</title>
<path fill="none" stroke="#000000" d="M1241.0962,-436.2098C1314.6515,-449.5106 1414.7522,-467.6116 1490.6331,-481.333"/>
<polygon fill="#000000" stroke="#000000" points="1490.2395,-484.8185 1500.7027,-483.1539 1491.4851,-477.9302 1490.2395,-484.8185"/>
<text text-anchor="middle" x="1430" y="-457.2" font-family="Times,serif" font-size="10.00" fill="#000000">wasInformedBy</text>
</g>
<!-- b2 -->
<g id="node12" class="node">
<title>b2</title>
<ellipse fill="#c0c0c0" stroke="#c0c0c0" cx="787.5" cy="-501.2" rx="1.8" ry="1.8"/>
</g>
<!-- n2&#45;&gt;b2 -->
<g id="edge6" class="edge">
<title>n2&#45;&gt;b2</title>
<path fill="none" stroke="#fed37f" d="M1034.0619,-436.2367C936.8046,-452.9147 807.2639,-476.1522 797.5,-483.2 791.9347,-487.2172 789.0923,-495.3336 788.019,-499.1407"/>
<text text-anchor="middle" x="966.5" y="-457.2" font-family="Times,serif" font-size="10.00" fill="#000000">wasAssociatedWith</text>
</g>
<!-- n10 -->
<g id="node19" class="node">
<title>n10</title>
<g id="a_node19"><a xlink:href="http://www.dia.govt.nz/passports/john_doe_0815" xlink:title="dia:passports/john_doe_0815">
<ellipse fill="#d3d3d3" stroke="#696969" cx="653.5" cy="-501.2" rx="113.9803" ry="18"/>
<text text-anchor="middle" x="653.5" y="-497.5" font-family="Times,serif" font-size="14.00" fill="#000000">dia:passports/john_doe_0815</text>
</a>
</g>
</g>
<!-- n2&#45;&gt;n10 -->
<g id="edge16" class="edge">
<title>n2&#45;&gt;n10</title>
<path fill="none" stroke="#8b0000" d="M976.045,-436.2021C936.7436,-441.278 895.041,-447.3226 856.5,-454.2 811.7128,-462.192 761.939,-473.6744 722.8866,-483.2891"/>
<polygon fill="#8b0000" stroke="#8b0000" points="721.5493,-480.0146 712.6853,-485.8181 723.2337,-486.8089 721.5493,-480.0146"/>
<text text-anchor="middle" x="866" y="-457.2" font-family="Times,serif" font-size="10.00" fill="#ff0000">used</text>
</g>
<!-- n11 -->
<g id="node21" class="node">
<title>n11</title>
<g id="a_node21"><a xlink:href="http://kauriid.nzattestations/ipns/QmeXXXattestation01XXX...1hS" xlink:title="kauriid:attestations/ipns/QmeXXXattestation01XXX...1hS">
<ellipse fill="#d3d3d3" stroke="#696969" cx="1184.5" cy="-501.2" rx="218.2613" ry="18"/>
<text text-anchor="middle" x="1184.5" y="-497.5" font-family="Times,serif" font-size="14.00" fill="#000000">kauriid:attestations/ipns/QmeXXXattestation01XXX...1hS</text>
</a>
</g>
</g>
<!-- n2&#45;&gt;n11 -->
<g id="edge19" class="edge">
<title>n2&#45;&gt;n11</title>
<path fill="none" stroke="#8b0000" d="M1150.8304,-436.2098C1156.5385,-447.2278 1163.9531,-461.5396 1170.3708,-473.9273"/>
<polygon fill="#8b0000" stroke="#8b0000" points="1167.3315,-475.6696 1175.0394,-482.9388 1173.547,-472.4496 1167.3315,-475.6696"/>
<text text-anchor="middle" x="1176" y="-457.2" font-family="Times,serif" font-size="10.00" fill="#ff0000">used</text>
</g>
<!-- ann1 -->
<g id="node3" class="node">
<title>ann1</title>
<polygon fill="none" stroke="#c0c0c0" points="1139,-360.6 958,-360.6 958,-324.6 1145,-324.6 1145,-354.6 1139,-360.6"/>
<polyline fill="none" stroke="#c0c0c0" points="1139,-360.6 1139,-354.6 "/>
<polyline fill="none" stroke="#c0c0c0" points="1145,-354.6 1139,-354.6 "/>
<g id="a_node3_0"><a xlink:href="http://purl.org/dc/terms/hasPart" xlink:title="&lt;TABLE&gt;">
<text text-anchor="start" x="968.5" y="-339.6" font-family="Times,serif" font-size="10.00" fill="#000000">dct:hasPart</text>
</a>
</g>
<text text-anchor="start" x="1016.5" y="-339.6" font-family="Times,serif" font-size="10.00" fill="#000000">kauriid:evidenceVerification</text>
</g>
<!-- ann1&#45;&gt;n2 -->
<g id="edge1" class="edge">
<title>ann1&#45;&gt;n2</title>
<path fill="none" stroke="#c0c0c0" stroke-dasharray="5,2" d="M1073.2865,-360.9007C1087.4367,-372.7869 1105.804,-388.2154 1119.9141,-400.0679"/>
</g>
<!-- b3 -->
<g id="node14" class="node">
<title>b3</title>
<ellipse fill="#c0c0c0" stroke="#c0c0c0" cx="880.5" cy="-584.2" rx="1.8" ry="1.8"/>
</g>
<!-- n3&#45;&gt;b3 -->
<g id="edge9" class="edge">
<title>n3&#45;&gt;b3</title>
<path fill="none" stroke="#fed37f" d="M1444.2707,-519.2098C1241.6119,-542.5718 910.4922,-580.7426 882.4107,-583.9797"/>
<text text-anchor="middle" x="1324.5" y="-540.2" font-family="Times,serif" font-size="10.00" fill="#000000">wasAssociatedWith</text>
</g>
<!-- n9 -->
<g id="node16" class="node">
<title>n9</title>
<g id="a_node16"><a xlink:href="http://kauriid.nzprocedures/evidence_checks/ipns/QmdXXXcurrentmanualXXX...YgV" xlink:title="kauriid:procedures/evidence_checks/ipns/QmdXXXcurrentmanualXXX...YgV">
<ellipse fill="#d3d3d3" stroke="#696969" cx="532.5" cy="-584.2" rx="289.7486" ry="18"/>
<text text-anchor="middle" x="532.5" y="-580.5" font-family="Times,serif" font-size="14.00" fill="#000000">kauriid:procedures/evidence_checks/ipns/QmdXXXcurrentmanualXXX...YgV</text>
</a>
</g>
</g>
<!-- n3&#45;&gt;n9 -->
<g id="edge12" class="edge">
<title>n3&#45;&gt;n9</title>
<path fill="none" stroke="#8b0000" d="M1420.9401,-518.3934C1417.769,-518.667 1414.6202,-518.9361 1411.5,-519.2 1345.7362,-524.7625 969.404,-552.3481 730.9635,-569.7472"/>
<polygon fill="#8b0000" stroke="#8b0000" points="730.4944,-566.272 720.7756,-570.4905 731.0038,-573.2535 730.4944,-566.272"/>
<text text-anchor="middle" x="1166" y="-540.2" font-family="Times,serif" font-size="10.00" fill="#ff0000">used</text>
</g>
<!-- n4 -->
<g id="node5" class="node">
<title>n4</title>
<g id="a_node5"><a xlink:href="http://kauriid.nzattestations/ipns/QmdXXXattestation03XXX...1Fc" xlink:title="kauriid:attestations/ipns/QmdXXXattestation03XXX...1Fc">
<ellipse fill="#fffc87" stroke="#808080" cx="807.5" cy="-18" rx="218.2613" ry="18"/>
<text text-anchor="middle" x="807.5" y="-14.3" font-family="Times,serif" font-size="14.00" fill="#000000">kauriid:attestations/ipns/QmdXXXattestation03XXX...1Fc</text>
</a>
</g>
</g>
<!-- b9 -->
<g id="node27" class="node">
<title>b9</title>
<ellipse fill="#c0c0c0" stroke="#c0c0c0" cx="711.5" cy="-101" rx="1.8" ry="1.8"/>
</g>
<!-- n4&#45;&gt;b9 -->
<g id="edge30" class="edge">
<title>n4&#45;&gt;b9</title>
<path fill="none" stroke="#006400" d="M757.0463,-35.5175C747.7255,-40.427 738.6815,-46.5249 731.5,-54 718.2297,-67.8127 713.1148,-91.7764 711.8403,-98.9279"/>
<text text-anchor="middle" x="766.5" y="-57" font-family="Times,serif" font-size="10.00" fill="#006400">wasGeneratedBy</text>
</g>
<!-- b10 -->
<g id="node30" class="node">
<title>b10</title>
<ellipse fill="#c0c0c0" stroke="#c0c0c0" cx="445.5" cy="-138.8" rx="1.8" ry="1.8"/>
</g>
<!-- n4&#45;&gt;b10 -->
<g id="edge34" class="edge">
<title>n4&#45;&gt;b10</title>
<path fill="none" stroke="#000000" d="M696.8421,-33.5841C621.4852,-45.5949 529.4772,-63.4204 495.5,-83 470.2545,-97.5479 450.9074,-129.3589 446.4651,-137.0843"/>
<text text-anchor="middle" x="619.5" y="-57" font-family="Times,serif" font-size="10.00" fill="#000000">wasDerivedFrom</text>
</g>
<!-- b11 -->
<g id="node31" class="node">
<title>b11</title>
<ellipse fill="#c0c0c0" stroke="#c0c0c0" cx="831.5" cy="-138.8" rx="1.8" ry="1.8"/>
</g>
<!-- n4&#45;&gt;b11 -->
<g id="edge37" class="edge">
<title>n4&#45;&gt;b11</title>
<path fill="none" stroke="#000000" d="M811.093,-36.085C817.1083,-66.3616 828.7872,-125.1454 831.0974,-136.7736"/>
<text text-anchor="middle" x="851.5" y="-57" font-family="Times,serif" font-size="10.00" fill="#000000">wasDerivedFrom</text>
</g>
<!-- n5 -->
<g id="node6" class="node">
<title>n5</title>
<g id="a_node6"><a xlink:href="http://kauriid.nzidentityAttestation/QmdXXXattestation03XXX...1Fc" xlink:title="kauriid:identityAttestation/QmdXXXattestation03XXX...1Fc">
<polygon fill="#9fb1fc" stroke="#0000ff" points="811.5,-194.6 461.5,-194.6 461.5,-158.6 811.5,-158.6 811.5,-194.6"/>
<text text-anchor="middle" x="636.5" y="-172.9" font-family="Times,serif" font-size="14.00" fill="#000000">kauriid:identityAttestation/QmdXXXattestation03XXX...1Fc</text>
</a>
</g>
</g>
<!-- n5&#45;&gt;n1 -->
<g id="edge36" class="edge">
<title>n5&#45;&gt;n1</title>
<path fill="none" stroke="#8b0000" d="M645.0132,-194.8254C650.6009,-204.8172 658.8509,-216.5672 669.5,-223.6 679.7884,-230.3946 700.8377,-236.5204 724.7273,-241.7118"/>
<polygon fill="#8b0000" stroke="#8b0000" points="724.2383,-245.1851 734.7427,-243.8036 725.6696,-238.3329 724.2383,-245.1851"/>
<text text-anchor="middle" x="679" y="-215.6" font-family="Times,serif" font-size="10.00" fill="#ff0000">used</text>
</g>
<!-- n6 -->
<g id="node8" class="node">
<title>n6</title>
<g id="a_node8"><a xlink:href="http://kauriid.nzevidenceVerification/QmdXXXattestation03XXX...1Fc" xlink:title="kauriid:evidenceVerification/QmdXXXattestation03XXX...1Fc">
<polygon fill="#9fb1fc" stroke="#0000ff" points="521.5,-519.2 159.5,-519.2 159.5,-483.2 521.5,-483.2 521.5,-519.2"/>
<text text-anchor="middle" x="340.5" y="-497.5" font-family="Times,serif" font-size="14.00" fill="#000000">kauriid:evidenceVerification/QmdXXXattestation03XXX...1Fc</text>
</a>
</g>
</g>
<!-- n5&#45;&gt;n6 -->
<g id="edge22" class="edge">
<title>n5&#45;&gt;n6</title>
<path fill="none" stroke="#000000" d="M621.4659,-194.7868C609.7645,-210.8152 595.5,-235.3314 595.5,-259.6 595.5,-259.6 595.5,-259.6 595.5,-418.2 595.5,-447.3119 534.6453,-467.7883 472.3926,-481.1189"/>
<polygon fill="#000000" stroke="#000000" points="471.4765,-477.7344 462.3986,-483.1972 472.9017,-484.5878 471.4765,-477.7344"/>
<text text-anchor="middle" x="628" y="-340.1" font-family="Times,serif" font-size="10.00" fill="#000000">wasInformedBy</text>
</g>
<!-- b7 -->
<g id="node23" class="node">
<title>b7</title>
<ellipse fill="#c0c0c0" stroke="#c0c0c0" cx="1559.5" cy="-259.6" rx="1.8" ry="1.8"/>
</g>
<!-- n5&#45;&gt;b7 -->
<g id="edge23" class="edge">
<title>n5&#45;&gt;b7</title>
<path fill="none" stroke="#fed37f" d="M811.7378,-192.3581C1068.9752,-215.49 1522.3187,-256.2565 1557.3437,-259.4061"/>
<text text-anchor="middle" x="1194.5" y="-215.6" font-family="Times,serif" font-size="10.00" fill="#000000">wasAssociatedWith</text>
</g>
<!-- n12 -->
<g id="node29" class="node">
<title>n12</title>
<g id="a_node29"><a xlink:href="http://www.harcourts.co.nzsnp/house_47110666.pdf" xlink:title="harcourts:snp/house_47110666.pdf">
<ellipse fill="#d3d3d3" stroke="#696969" cx="432.5" cy="-259.6" rx="134.5761" ry="18"/>
<text text-anchor="middle" x="432.5" y="-255.9" font-family="Times,serif" font-size="14.00" fill="#000000">harcourts:snp/house_47110666.pdf</text>
</a>
</g>
</g>
<!-- n5&#45;&gt;n12 -->
<g id="edge33" class="edge">
<title>n5&#45;&gt;n12</title>
<path fill="none" stroke="#8b0000" d="M592.235,-194.6098C560.4517,-207.5412 517.5167,-225.0099 484.1641,-238.5798"/>
<polygon fill="#8b0000" stroke="#8b0000" points="482.5309,-235.4656 474.5872,-242.4763 485.169,-241.9495 482.5309,-235.4656"/>
<text text-anchor="middle" x="557" y="-215.6" font-family="Times,serif" font-size="10.00" fill="#ff0000">used</text>
</g>
<!-- ann2 -->
<g id="node7" class="node">
<title>ann2</title>
<polygon fill="none" stroke="#c0c0c0" points="686,-119 505,-119 505,-83 692,-83 692,-113 686,-119"/>
<polyline fill="none" stroke="#c0c0c0" points="686,-119 686,-113 "/>
<polyline fill="none" stroke="#c0c0c0" points="692,-113 686,-113 "/>
<g id="a_node7_1"><a xlink:href="http://purl.org/dc/terms/hasPart" xlink:title="&lt;TABLE&gt;">
<text text-anchor="start" x="515.5" y="-98" font-family="Times,serif" font-size="10.00" fill="#000000">dct:hasPart</text>
</a>
</g>
<text text-anchor="start" x="563.5" y="-98" font-family="Times,serif" font-size="10.00" fill="#000000">kauriid:evidenceVerification</text>
</g>
<!-- ann2&#45;&gt;n5 -->
<g id="edge2" class="edge">
<title>ann2&#45;&gt;n5</title>
<path fill="none" stroke="#c0c0c0" stroke-dasharray="5,2" d="M607.6987,-119.3007C613.6733,-131.1869 621.4284,-146.6154 627.386,-158.4679"/>
</g>
<!-- n6&#45;&gt;n9 -->
<g id="edge29" class="edge">
<title>n6&#45;&gt;n9</title>
<path fill="none" stroke="#8b0000" d="M382.1611,-519.2098C411.4467,-531.8697 450.7919,-548.8782 481.8857,-562.3199"/>
<polygon fill="#8b0000" stroke="#8b0000" points="480.6825,-565.6127 491.2504,-566.3681 483.4602,-559.1874 480.6825,-565.6127"/>
<text text-anchor="middle" x="458" y="-540.2" font-family="Times,serif" font-size="10.00" fill="#ff0000">used</text>
</g>
<!-- b8 -->
<g id="node25" class="node">
<title>b8</title>
<ellipse fill="#c0c0c0" stroke="#c0c0c0" cx="222.5" cy="-584.2" rx="1.8" ry="1.8"/>
</g>
<!-- n6&#45;&gt;b8 -->
<g id="edge26" class="edge">
<title>n6&#45;&gt;b8</title>
<path fill="none" stroke="#fed37f" d="M301.2616,-519.2317C279.5311,-530.5576 253.0448,-546.7069 233.5,-566.2 228.5213,-571.1656 224.8231,-578.8078 223.2852,-582.3185"/>
<text text-anchor="middle" x="309.5" y="-540.2" font-family="Times,serif" font-size="10.00" fill="#000000">wasAssociatedWith</text>
</g>
<!-- b1 -->
<g id="node9" class="node">
<title>b1</title>
<ellipse fill="#c0c0c0" stroke="#c0c0c0" cx="865.5" cy="-724" rx="1.8" ry="1.8"/>
</g>
<!-- n8 -->
<g id="node11" class="node">
<title>n8</title>
<g id="a_node11"><a xlink:href="http://www.asb.co.nz/Organisation" xlink:title="asb:Organisation">
<polygon fill="#d3d3d3" stroke="#696969" points="952.0292,-786.3623 865.5,-798.8 778.9708,-786.3623 779.0516,-766.2377 951.9484,-766.2377 952.0292,-786.3623"/>
<text text-anchor="middle" x="865.5" y="-777.1" font-family="Times,serif" font-size="14.00" fill="#000000">asb:Organisation</text>
</a>
</g>
</g>
<!-- b1&#45;&gt;n8 -->
<g id="edge4" class="edge">
<title>b1&#45;&gt;n8</title>
<path fill="none" stroke="#fed37f" d="M865.5,-725.8898C865.5,-730.6541 865.5,-743.6433 865.5,-755.7924"/>
<polygon fill="#fed37f" stroke="#fed37f" points="862.0001,-756.0247 865.5,-766.0247 869.0001,-756.0248 862.0001,-756.0247"/>
</g>
<!-- n7 -->
<g id="node10" class="node">
<title>n7</title>
<g id="a_node10"><a xlink:href="http://www.asb.co.nz/staff/2ovXXXrayXXX...TRr" xlink:title="asb:staff/2ovXXXrayXXX...TRr">
<polygon fill="#d3d3d3" stroke="#696969" points="1022.3156,-662.7623 865.5,-675.2 708.6844,-662.7623 708.8308,-642.6377 1022.1692,-642.6377 1022.3156,-662.7623"/>
<text text-anchor="middle" x="865.5" y="-653.5" font-family="Times,serif" font-size="14.00" fill="#000000">asb:staff/2ovXXXrayXXX...TRr</text>
</a>
</g>
</g>
<!-- n7&#45;&gt;b1 -->
<g id="edge3" class="edge">
<title>n7&#45;&gt;b1</title>
<path fill="none" stroke="#fed37f" d="M865.5,-675.4534C865.5,-692.1413 865.5,-715.2294 865.5,-722.037"/>
<text text-anchor="middle" x="902" y="-696.2" font-family="Times,serif" font-size="10.00" fill="#000000">actedOnBehalfOf</text>
</g>
<!-- b2&#45;&gt;n7 -->
<g id="edge7" class="edge">
<title>b2&#45;&gt;n7</title>
<path fill="none" stroke="#fed37f" d="M788.3716,-502.9267C790.0327,-506.1796 793.8153,-513.4091 797.5,-519.2 811.3404,-540.9516 819.323,-543.4753 831.5,-566.2 843.0602,-587.7737 852.4402,-614.132 858.3967,-632.917"/>
<polygon fill="#fed37f" stroke="#fed37f" points="855.0581,-633.9682 861.3458,-642.4955 861.7482,-631.9084 855.0581,-633.9682"/>
</g>
<!-- ann3 -->
<g id="node13" class="node">
<title>ann3</title>
<polygon fill="none" stroke="#c0c0c0" points="852,-436.2 717,-436.2 717,-400.2 858,-400.2 858,-430.2 852,-436.2"/>
<polyline fill="none" stroke="#c0c0c0" points="852,-436.2 852,-430.2 "/>
<polyline fill="none" stroke="#c0c0c0" points="858,-430.2 852,-430.2 "/>
<g id="a_node13_2"><a xlink:href="http://www.w3.org/ns/prov#hadRole" xlink:title="&lt;TABLE&gt;">
<text text-anchor="start" x="727.5" y="-415.2" font-family="Times,serif" font-size="10.00" fill="#000000">prov:hadRole</text>
</a>
</g>
<text text-anchor="start" x="786.5" y="-415.2" font-family="Times,serif" font-size="10.00" fill="#000000">kauriid:attester</text>
</g>
<!-- ann3&#45;&gt;b2 -->
<g id="edge8" class="edge">
<title>ann3&#45;&gt;b2</title>
<path fill="none" stroke="#c0c0c0" stroke-dasharray="5,2" d="M787.5,-436.2098C787.5,-457.3786 787.5,-490.7063 787.5,-499.1856"/>
</g>
<!-- b3&#45;&gt;n7 -->
<g id="edge10" class="edge">
<title>b3&#45;&gt;n7</title>
<path fill="none" stroke="#fed37f" d="M880.1292,-586.0045C878.8093,-592.4283 874.2207,-614.759 870.5303,-632.7192"/>
<polygon fill="#fed37f" stroke="#fed37f" points="867.0771,-632.1358 868.4927,-642.6356 873.9339,-633.5448 867.0771,-632.1358"/>
</g>
<!-- ann4 -->
<g id="node15" class="node">
<title>ann4</title>
<polygon fill="none" stroke="#c0c0c0" points="942,-519.2 807,-519.2 807,-483.2 948,-483.2 948,-513.2 942,-519.2"/>
<polyline fill="none" stroke="#c0c0c0" points="942,-519.2 942,-513.2 "/>
<polyline fill="none" stroke="#c0c0c0" points="948,-513.2 942,-513.2 "/>
<g id="a_node15_3"><a xlink:href="http://www.w3.org/ns/prov#hadRole" xlink:title="&lt;TABLE&gt;">
<text text-anchor="start" x="817.5" y="-498.2" font-family="Times,serif" font-size="10.00" fill="#000000">prov:hadRole</text>
</a>
</g>
<text text-anchor="start" x="876.5" y="-498.2" font-family="Times,serif" font-size="10.00" fill="#000000">kauriid:verifier</text>
</g>
<!-- ann4&#45;&gt;b3 -->
<g id="edge11" class="edge">
<title>ann4&#45;&gt;b3</title>
<path fill="none" stroke="#c0c0c0" stroke-dasharray="5,2" d="M878.151,-519.2098C878.9161,-540.3786 880.1207,-573.7063 880.4272,-582.1856"/>
</g>
<!-- b4&#45;&gt;n2 -->
<g id="edge14" class="edge">
<title>b4&#45;&gt;n2</title>
<path fill="none" stroke="#006400" d="M1163.9315,-344.4688C1161.9937,-350.8382 1155.4617,-372.3086 1149.9427,-390.4493"/>
<polygon fill="#006400" stroke="#006400" points="1146.5786,-389.4821 1147.0164,-400.0679 1153.2755,-391.5196 1146.5786,-389.4821"/>
</g>
<!-- ann5 -->
<g id="node18" class="node">
<title>ann5</title>
<polygon fill="none" stroke="#c0c0c0" points="1339.5,-277.6 1073.5,-277.6 1073.5,-241.6 1345.5,-241.6 1345.5,-271.6 1339.5,-277.6"/>
<polyline fill="none" stroke="#c0c0c0" points="1339.5,-277.6 1339.5,-271.6 "/>
<polyline fill="none" stroke="#c0c0c0" points="1345.5,-271.6 1339.5,-271.6 "/>
<g id="a_node18_4"><a xlink:href="http://www.w3.org/ns/prov#generatedAtTime" xlink:title="&lt;TABLE&gt;">
<text text-anchor="start" x="1083.5" y="-256.6" font-family="Times,serif" font-size="10.00" fill="#000000">prov:generatedAtTime</text>
</a>
</g>
<text text-anchor="start" x="1179.5" y="-256.6" font-family="Times,serif" font-size="10.00" fill="#000000">2018&#45;09&#45;10T04:21:17.636013+00:00</text>
</g>
<!-- ann5&#45;&gt;b4 -->
<g id="edge15" class="edge">
<title>ann5&#45;&gt;b4</title>
<path fill="none" stroke="#c0c0c0" stroke-dasharray="5,2" d="M1199.7357,-277.6098C1188.1552,-298.9694 1169.8632,-332.7078 1165.4712,-340.8087"/>
</g>
<!-- b5&#45;&gt;n10 -->
<g id="edge18" class="edge">
<title>b5&#45;&gt;n10</title>
<path fill="none" stroke="#000000" d="M734.7169,-381.2319C729.8204,-383.5898 715.9689,-390.7625 707.5,-400.2 687.9225,-422.0165 672.9855,-452.2001 663.8366,-473.8793"/>
<polygon fill="#000000" stroke="#000000" points="660.5787,-472.5995 660.0445,-483.1809 667.0608,-475.2422 660.5787,-472.5995"/>
</g>
<!-- b6&#45;&gt;n11 -->
<g id="edge21" class="edge">
<title>b6&#45;&gt;n11</title>
<path fill="none" stroke="#000000" d="M907.2771,-382.3903C906.2252,-392.8692 902.8209,-442.0396 928.5,-465.2 937.1526,-473.0039 980.9101,-480.4003 1029.8683,-486.4357"/>
<polygon fill="#000000" stroke="#000000" points="1029.7042,-489.9412 1040.0513,-487.6634 1030.5422,-482.9915 1029.7042,-489.9412"/>
</g>
<!-- b7&#45;&gt;n7 -->
<g id="edge24" class="edge">
<title>b7&#45;&gt;n7</title>
<path fill="none" stroke="#fed37f" d="M1561.3611,-259.7921C1584.147,-262.1927 1808.5,-287.2354 1808.5,-342.6 1808.5,-342.6 1808.5,-342.6 1808.5,-584.2 1808.5,-622.6529 1303.4926,-643.92 1032.6077,-652.5616"/>
<polygon fill="#fed37f" stroke="#fed37f" points="1032.16,-649.0739 1022.2758,-652.8887 1032.3816,-656.0704 1032.16,-649.0739"/>
</g>
<!-- ann6 -->
<g id="node24" class="node">
<title>ann6</title>
<polygon fill="none" stroke="#c0c0c0" points="1624,-194.6 1489,-194.6 1489,-158.6 1630,-158.6 1630,-188.6 1624,-194.6"/>
<polyline fill="none" stroke="#c0c0c0" points="1624,-194.6 1624,-188.6 "/>
<polyline fill="none" stroke="#c0c0c0" points="1630,-188.6 1624,-188.6 "/>
<g id="a_node24_5"><a xlink:href="http://www.w3.org/ns/prov#hadRole" xlink:title="&lt;TABLE&gt;">
<text text-anchor="start" x="1499.5" y="-173.6" font-family="Times,serif" font-size="10.00" fill="#000000">prov:hadRole</text>
</a>
</g>
<text text-anchor="start" x="1558.5" y="-173.6" font-family="Times,serif" font-size="10.00" fill="#000000">kauriid:attester</text>
</g>
<!-- ann6&#45;&gt;b7 -->
<g id="edge25" class="edge">
<title>ann6&#45;&gt;b7</title>
<path fill="none" stroke="#c0c0c0" stroke-dasharray="5,2" d="M1559.5,-194.6098C1559.5,-215.7786 1559.5,-249.1063 1559.5,-257.5856"/>
</g>
<!-- b8&#45;&gt;n7 -->
<g id="edge27" class="edge">
<title>b8&#45;&gt;n7</title>
<path fill="none" stroke="#fed37f" d="M223.0979,-586.3183C224.3235,-590.2238 227.522,-598.4975 233.5,-602.2 272.2204,-626.1815 524.7672,-642.1347 698.6473,-650.4221"/>
<polygon fill="#fed37f" stroke="#fed37f" points="698.5286,-653.9203 708.6826,-650.8961 698.8589,-646.9281 698.5286,-653.9203"/>
</g>
<!-- ann7 -->
<g id="node26" class="node">
<title>ann7</title>
<polygon fill="none" stroke="#c0c0c0" points="135,-519.2 0,-519.2 0,-483.2 141,-483.2 141,-513.2 135,-519.2"/>
<polyline fill="none" stroke="#c0c0c0" points="135,-519.2 135,-513.2 "/>
<polyline fill="none" stroke="#c0c0c0" points="141,-513.2 135,-513.2 "/>
<g id="a_node26_6"><a xlink:href="http://www.w3.org/ns/prov#hadRole" xlink:title="&lt;TABLE&gt;">
<text text-anchor="start" x="10.5" y="-498.2" font-family="Times,serif" font-size="10.00" fill="#000000">prov:hadRole</text>
</a>
</g>
<text text-anchor="start" x="69.5" y="-498.2" font-family="Times,serif" font-size="10.00" fill="#000000">kauriid:verifier</text>
</g>
<!-- ann7&#45;&gt;b8 -->
<g id="edge28" class="edge">
<title>ann7&#45;&gt;b8</title>
<path fill="none" stroke="#c0c0c0" stroke-dasharray="5,2" d="M103.4817,-519.2098C144.3444,-541.5229 209.946,-577.3448 220.9195,-583.337"/>
</g>
<!-- b9&#45;&gt;n5 -->
<g id="edge31" class="edge">
<title>b9&#45;&gt;n5</title>
<path fill="none" stroke="#006400" d="M710.6238,-102.7984C708.9343,-106.1707 704.9936,-113.5915 700.5,-119 690.7374,-130.7502 678.5702,-142.2983 667.474,-151.933"/>
<polygon fill="#006400" stroke="#006400" points="664.9937,-149.4473 659.6332,-158.586 669.5227,-154.7848 664.9937,-149.4473"/>
</g>
<!-- ann8 -->
<g id="node28" class="node">
<title>ann8</title>
<polygon fill="none" stroke="#c0c0c0" points="565.5,-36 299.5,-36 299.5,0 571.5,0 571.5,-30 565.5,-36"/>
<polyline fill="none" stroke="#c0c0c0" points="565.5,-36 565.5,-30 "/>
<polyline fill="none" stroke="#c0c0c0" points="571.5,-30 565.5,-30 "/>
<g id="a_node28_7"><a xlink:href="http://www.w3.org/ns/prov#generatedAtTime" xlink:title="&lt;TABLE&gt;">
<text text-anchor="start" x="309.5" y="-15" font-family="Times,serif" font-size="10.00" fill="#000000">prov:generatedAtTime</text>
</a>
</g>
<text text-anchor="start" x="405.5" y="-15" font-family="Times,serif" font-size="10.00" fill="#000000">2018&#45;09&#45;10T04:21:17.649314+00:00</text>
</g>
<!-- ann8&#45;&gt;b9 -->
<g id="edge32" class="edge">
<title>ann8&#45;&gt;b9</title>
<path fill="none" stroke="#c0c0c0" stroke-dasharray="5,2" d="M436.1263,-36.3832C437.5017,-46.4276 441.0017,-58.1776 449.5,-65 493.1075,-100.0078 652.7361,-53.9178 700.5,-83 706.506,-86.6569 709.6905,-94.9534 710.9074,-98.8732"/>
</g>
<!-- b10&#45;&gt;n12 -->
<g id="edge35" class="edge">
<title>b10&#45;&gt;n12</title>
<path fill="none" stroke="#000000" d="M445.2744,-140.8967C444.1354,-151.4804 438.9384,-199.7723 435.5341,-231.4061"/>
<polygon fill="#000000" stroke="#000000" points="432.0469,-231.0998 434.4568,-241.417 439.0068,-231.8489 432.0469,-231.0998"/>
</g>
<!-- b11&#45;&gt;n1 -->
<g id="edge38" class="edge">
<title>b11&#45;&gt;n1</title>
<path fill="none" stroke="#000000" d="M831.6389,-140.8967C832.3398,-151.4804 835.5379,-199.7723 837.6329,-231.4061"/>
<polygon fill="#000000" stroke="#000000" points="834.1426,-231.6701 838.2958,-241.417 841.1273,-231.2075 834.1426,-231.6701"/>
</g>
</g>
</svg>
